Fundamental of Data Science for EESS
…
## Tsibble objects

* Like a dataframe or a tibble but geared for time series
* index : the time variable - here `year` - but can be day, minute etc...
* key : one or several column that corresponding to different time series - here `Country`

.left-code[

```r
library(tsibbledata)
global_economy
```

```
# A tsibble: 15,150 x 9 [1Y]
# Key:       Country [263]
   Country     Code   Year         GDP Growth   CPI Imports Exports Population
   <fct>       <fct> <dbl>       <dbl>  <dbl> <dbl>   <dbl>   <dbl>      <dbl>
 1 Afghanistan AFG    1960  537777811.     NA    NA    7.02    4.13    8996351
 2 Afghanistan AFG    1961  548888896.     NA    NA    8.10    4.45    9166764
 3 Afghanistan AFG    1962  546666678.     NA    NA    9.35    4.88    9345868
 4 Afghanistan AFG    1963  751111191.     NA    NA   16.9     9.17    9533954
 5 Afghanistan AFG    1964  800000044.     NA    NA   18.1     8.89    9731361
 6 Afghanistan AFG    1965 1006666638.     NA    NA   21.4    11.3     9938414
 7 Afghanistan AFG    1966 1399999967.     NA    NA   18.6     8.57   10152331
 8 Afghanistan AFG    1967 1673333418.     NA    NA   14.2     6.77   10372630
 9 Afghanistan AFG    1968 1373333367.     NA    NA   15.2     8.90   10604346
10 Afghanistan AFG    1969 1408888922.     NA    NA   15.0    10.1    10854428
# ... with 15,140 more rows
```
…
---

## Tsibble objects
* A series with 2 keys

.left-code[

```r
olympic_running
```

```
# A tsibble: 312 x 4 [4Y]
# Key:       Length, Sex [14]
    Year Length Sex    Time
   <dbl> <fct>  <chr> <dbl>
 1  1896 100m   men    12  
 2  1900 100m   men    11  
 3  1904 100m   men    11  
 4  1908 100m   men    10.8
 5  1912 100m   men    10.8
 6  1916 100m   men    NA  
 7  1920 100m   men    10.8
 8  1924 100m   men    10.6
 9  1928 100m   men    10.8
10  1932 100m   men    10.3
# ... with 302 more rows
```
…
tsyn <- tsibble::as_tsibble(syn_long, 
                            index = date, 
                            key = parameter, 
                            regular = TRUE, 
                            validate = TRUE)
```
]

.pull-right[

```
# A tsibble: 16,731 x 3 [1D]
# Key:       parameter [3]
   date       parameter value
   <date>     <chr>     <dbl>
 1 2003-05-29 radiation  22.8
 2 2003-05-30 radiation  28.3
 3 2003-05-31 radiation  19.4
 4 2003-06-01 radiation  NA  
 5 2003-06-02 radiation  NA  
 6 2003-06-03 radiation  NA  
 7 2003-06-04 radiation  NA  
 8 2003-06-05 radiation  10.6
 9 2003-06-06 radiation  29.6
10 2003-06-07 radiation  NA  
# ... with 16,721 more rows
```
…
